…
## Warning: `type_convert()` only converts columns of type 'character'.
## - `df` has no columns of type 'character'

## Warning: `type_convert()` only converts columns of type 'character'.
## - `df` has no columns of type 'character'

## Warning: `type_convert()` only converts columns of type 'character'.
## - `df` has no columns of type 'character'

#Recover info from the second table of CPI_raw and merge it to CPI_data
CPI_raw[[2]]

## # A tibble: 49 × 7
##    title                 series_id   vintage_date units   freq  seas_adj updated
##    <chr>                 <chr>       <chr>        <chr>   <chr> <chr>    <chr>  
##  1 Consumer Price Index… CUSR0000SE… Current      Index … M     SA       2021-1…
##  2 Consumer Price Index… CUSR0000SE… Current      Index … M     SA       2021-1…
##  3 Consumer Price Index… CUSR0000SE… Current      Index … M     SA       2021-1…
##  4 Consumer Price Index… CUSR0000SA… Current      Index … M     SA       2021-1…
##  5 Consumer Price Index… CPIAUCSL    Current      Index … M     SA       2021-1…
##  6 Consumer Price Index… CPIAPPSL    Current      Index … M     SA       2021-1…
##  7 Consumer Price Index… CUSR0000SA… Current      Index … M     SA       2021-1…
##  8 Consumer Price Index… CUSR0000SE… Current      Index … M     SA       2021-1…
##  9 Consumer Price Index… CUSR0000SE… Current      Index … M     SA       2021-1…
## 10 Consumer Price Index… CUSR0000SE… Current      Index … M     SA       2021-1…
## # … with 39 more rows
…
